{
  "cars": [
    {
      "id": 1,
      "make": "Ford",
      "model": "Fusion Hybrid",
      "year": 2018,
      "color": "silver",
      "price": 30000
    },
    {
      "id": 2,
      "make": "a",
      "model": "a",
      "year": 2019,
      "color": "a",
      "price": 13
    },
    {
      "make": "Ford",
      "model": "T",
      "year": 1920,
      "color": "black",
      "price": 401,
      "id": 3
    }
  ]
}